13:601  2:087  Found BIOS RSDP at FD780
13:601  0:000  Printing ACPI tables from RSDP FD780 ...
13:601  0:000   FD780: 'RSD PTR ', Rev: 2 (Acpi 2.0 or newer), Len: 36
13:601  0:000    (Xsdt: C872B080, Rsdt: C872B028)
13:601  0:000    C872B080: 'XSDT', 'A M I', Rev: 1, Len: 116
13:601  0:000    C872B028: 'RSDT', 'A M I', Rev: 1, Len: 76
13:601  0:000    Tables in Xsdt: 10
13:601  0:000    0. C8736988: 'FACP', 'A M I', Rev: 5, Len: 268
13:601  0:000        (Dsdt: C872B188, Facs: C8860080, XDsdt: C872B188, XFacs: 0)
13:601  0:000        C872B188: 'DSDT', 'A M I', Rev: 2, Len: 47101
13:602  0:000        C8860080: 'FACS', Ver: 2, Len: 64
13:602  0:000    1. C8736A98: 'APIC', 'A M I', Rev: 3, Len: 146
13:602  0:000    2. C8736B30: 'FPDT', 'A M I', Rev: 1, Len: 68
13:602  0:000    3. C8736B78: 'MCFG', 'A M I', Rev: 1, Len: 60
13:602  0:000    4. C8736BB8: 'HPET', 'A M I', Rev: 1, Len: 56
13:602  0:000    5. C8736BF0: 'SSDT', 'SataTabl', Rev: 1, Len: 877
13:602  0:000    6. C87384B8: 'BGRT', 'A M I', Rev: 0, Len: 56
13:602  0:000    7. C8736FB8: 'SSDT', 'Cpu0Ist', Rev: 1, Len: 2474
13:602  0:000    8. C8737968: 'SSDT', 'CpuPm', Rev: 1, Len: 2706
13:602  0:000    9. C8738400: 'DMAR', 'SNB', Rev: 1, Len: 184
13:602  0:000    Tables in Rsdt: 10
13:602  0:000    0. C872B100: 'FACP', 'A M I', Rev: 2, Len: 132
13:602  0:000        (Dsdt: C872B188, Facs: C8860040)
13:602  0:000        C872B188: 'DSDT', 'A M I', Rev: 2, Len: 47101
13:603  0:000        C8860040: 'FACS', Ver: 0, Len: 64
13:603  0:000    1. C8736A98: 'APIC', 'A M I', Rev: 3, Len: 146
13:603  0:000    2. C8736B30: 'FPDT', 'A M I', Rev: 1, Len: 68
13:603  0:000    3. C8736B78: 'MCFG', 'A M I', Rev: 1, Len: 60
13:603  0:000    4. C8736BB8: 'HPET', 'A M I', Rev: 1, Len: 56
13:603  0:000    5. C8736BF0: 'SSDT', 'SataTabl', Rev: 1, Len: 877
13:603  0:000    6. C87384B8: 'BGRT', 'A M I', Rev: 0, Len: 56
13:603  0:000    7. C8736FB8: 'SSDT', 'Cpu0Ist', Rev: 1, Len: 2474
13:603  0:000    8. C8737968: 'SSDT', 'CpuPm', Rev: 1, Len: 2706
13:603  0:000    9. C8738400: 'DMAR', 'SNB', Rev: 1, Len: 184
13:603  0:000  Found UEFI Acpi 2.0 RSDP at C872B000
13:603  0:000  Saving ACPI tables from RSDP C872B000 to EFI\CLOVER\ACPI\origin ...
13:603  0:000   C872B000: 'RSD PTR ', Rev: 2 (Acpi 2.0 or newer), Len: 36 -> RSDP.aml
13:612  0:009    (Xsdt: C872B080, Rsdt: C872B028)
13:612  0:000    C872B080: 'XSDT', 'A M I', Rev: 1, Len: 116 -> XSDT.aml
13:616  0:004    C872B028: 'RSDT', 'A M I', Rev: 1, Len: 76 -> RSDT.aml
13:621  0:004    Tables in Xsdt: 10
13:621  0:000    0. C8736988: 'FACP', 'A M I', Rev: 5, Len: 268 -> FACP.aml
13:625  0:004        (Dsdt: C872B188, Facs: C8860080, XDsdt: C872B188, XFacs: 0)
13:625  0:000        C872B188: 'DSDT', 'A M I', Rev: 2, Len: 47101 -> DSDT.aml
13:631  0:005        C8860080: 'FACS', Ver: 2, Len: 64 -> FACS.aml
13:635  0:004    1. C8736A98: 'APIC', 'A M I', Rev: 3, Len: 146 -> APIC.aml
13:639  0:004    2. C8736B30: 'FPDT', 'A M I', Rev: 1, Len: 68 -> FPDT.aml
13:644  0:004    3. C8736B78: 'MCFG', 'A M I', Rev: 1, Len: 60 -> MCFG.aml
13:648  0:004    4. C8736BB8: 'HPET', 'A M I', Rev: 1, Len: 56 -> HPET.aml
13:653  0:004    5. C8736BF0: 'SSDT', 'SataTabl', Rev: 1, Len: 877 -> SSDT-0-SataTabl.aml
13:657  0:004    6. C87384B8: 'BGRT', 'A M I', Rev: 0, Len: 56 -> BGRT.aml
13:661  0:004    7. C8736FB8: 'SSDT', 'Cpu0Ist', Rev: 1, Len: 2474 -> SSDT-1-Cpu0Ist.aml
13:666  0:004    8. C8737968: 'SSDT', 'CpuPm', Rev: 1, Len: 2706 -> SSDT-2-CpuPm.aml (Found hidden SSDT 4 pcs)
13:670  0:004        * C637D018: 'SSDT', 'CpuPm', Rev: 1, Len: 2706  53 53 44 54 92 0A 00 00 01 2C 50 6D 52 65 66 00 Internal length = 2706 -> SSDT-x2_0-CpuPm.aml
13:675  0:004        * C86B5A98: 'SSDT', 'ApIst', Rev: 1, Len: 771  53 53 44 54 03 03 00 00 01 76 50 6D 52 65 66 00 Internal length = 771 -> SSDT-x2_1-ApIst.aml
13:679  0:004        * C86B4018: 'SSDT', 'Cpu0Cst', Rev: 1, Len: 2107  53 53 44 54 3B 08 00 00 01 D8 50 6D 52 65 66 00 Internal length = 2107 -> SSDT-x2_2-Cpu0Cst.aml
13:683  0:004        * C86B6C18: 'SSDT', 'ApCst', Rev: 1, Len: 281  53 53 44 54 19 01 00 00 01 EC 50 6D 52 65 66 00 Internal length = 281 -> SSDT-x2_3-ApCst.aml
13:688  0:004  
13:688  0:000    9. C8738400: 'DMAR', 'SNB', Rev: 1, Len: 184 -> DMAR.aml
13:692  0:004    Tables in Rsdt: 10
13:692  0:000    0. C872B100: 'FACP', 'A M I', Rev: 2, Len: 132 -> RSDT-FACP.aml
13:696  0:004        (Dsdt: C872B188, Facs: C8860040)
13:696  0:000        C872B188: 'DSDT', 'A M I', Rev: 2, Len: 47101
13:697  0:000        C8860040: 'FACS', Ver: 0, Len: 64 -> RSDT-FACS.aml
13:702  0:004    1. C8736A98: 'APIC', 'A M I', Rev: 3, Len: 146
13:702  0:000    2. C8736B30: 'FPDT', 'A M I', Rev: 1, Len: 68
13:702  0:000    3. C8736B78: 'MCFG', 'A M I', Rev: 1, Len: 60
13:702  0:000    4. C8736BB8: 'HPET', 'A M I', Rev: 1, Len: 56
13:702  0:000    5. C8736BF0: 'SSDT', 'SataTabl', Rev: 1, Len: 877
13:702  0:000    6. C87384B8: 'BGRT', 'A M I', Rev: 0, Len: 56
13:702  0:000    7. C8736FB8: 'SSDT', 'Cpu0Ist', Rev: 1, Len: 2474
13:702  0:000    8. C8737968: 'SSDT', 'CpuPm', Rev: 1, Len: 2706
13:702  0:000    9. C8738400: 'DMAR', 'SNB', Rev: 1, Len: 184
13:702  0:000  Found UEFI Acpi 1.0 RSDP at C872B000
13:702  0:000  Printing ACPI tables from RSDP C872B000 ...
13:702  0:000   C872B000: 'RSD PTR ', Rev: 2 (Acpi 2.0 or newer), Len: 36
13:702  0:000    (Xsdt: C872B080, Rsdt: C872B028)
13:702  0:000    C872B080: 'XSDT', 'A M I', Rev: 1, Len: 116
13:702  0:000    C872B028: 'RSDT', 'A M I', Rev: 1, Len: 76
13:702  0:000    Tables in Xsdt: 10
13:702  0:000    0. C8736988: 'FACP', 'A M I', Rev: 5, Len: 268
13:702  0:000        (Dsdt: C872B188, Facs: C8860080, XDsdt: C872B188, XFacs: 0)
13:702  0:000        C872B188: 'DSDT', 'A M I', Rev: 2, Len: 47101
13:703  0:000        C8860080: 'FACS', Ver: 2, Len: 64
13:703  0:000    1. C8736A98: 'APIC', 'A M I', Rev: 3, Len: 146
13:703  0:000    2. C8736B30: 'FPDT', 'A M I', Rev: 1, Len: 68
13:703  0:000    3. C8736B78: 'MCFG', 'A M I', Rev: 1, Len: 60
13:703  0:000    4. C8736BB8: 'HPET', 'A M I', Rev: 1, Len: 56
13:703  0:000    5. C8736BF0: 'SSDT', 'SataTabl', Rev: 1, Len: 877
13:703  0:000    6. C87384B8: 'BGRT', 'A M I', Rev: 0, Len: 56
13:703  0:000    7. C8736FB8: 'SSDT', 'Cpu0Ist', Rev: 1, Len: 2474
13:703  0:000    8. C8737968: 'SSDT', 'CpuPm', Rev: 1, Len: 2706
13:703  0:000    9. C8738400: 'DMAR', 'SNB', Rev: 1, Len: 184
13:703  0:000    Tables in Rsdt: 10
13:703  0:000    0. C872B100: 'FACP', 'A M I', Rev: 2, Len: 132
13:703  0:000        (Dsdt: C872B188, Facs: C8860040)
13:703  0:000        C872B188: 'DSDT', 'A M I', Rev: 2, Len: 47101
13:704  0:000        C8860040: 'FACS', Ver: 0, Len: 64
13:704  0:000    1. C8736A98: 'APIC', 'A M I', Rev: 3, Len: 146
13:704  0:000    2. C8736B30: 'FPDT', 'A M I', Rev: 1, Len: 68
13:704  0:000    3. C8736B78: 'MCFG', 'A M I', Rev: 1, Len: 60
13:704  0:000    4. C8736BB8: 'HPET', 'A M I', Rev: 1, Len: 56
13:704  0:000    5. C8736BF0: 'SSDT', 'SataTabl', Rev: 1, Len: 877
13:704  0:000    6. C87384B8: 'BGRT', 'A M I', Rev: 0, Len: 56
13:704  0:000    7. C8736FB8: 'SSDT', 'Cpu0Ist', Rev: 1, Len: 2474
13:704  0:000    8. C8737968: 'SSDT', 'CpuPm', Rev: 1, Len: 2706
13:704  0:000    9. C8738400: 'DMAR', 'SNB', Rev: 1, Len: 184
